\babel@toc {french}{}
\contentsline {chapter}{\numberline {1}Modules MASTER}{1}{chapter.1}%
\contentsline {section}{\numberline {1.1}ARGPARSE}{1}{section.1.1}%
\contentsline {section}{\numberline {1.2}master module}{1}{section.1.2}%
\contentsline {subsection}{\numberline {1.2.1}Module de classe}{3}{subsection.1.2.1}%
\contentsline {subsubsection}{\numberline {1.2.1.1}classes.menu\_class module}{3}{subsubsection.1.2.1.1}%
\contentsline {subsubsection}{\numberline {1.2.1.2}classes.slave\_data\_class module}{4}{subsubsection.1.2.1.2}%
\contentsline {chapter}{\numberline {2}Modules SLAVE}{6}{chapter.2}%
\contentsline {section}{\numberline {2.1}START MODULE}{6}{section.2.1}%
\contentsline {section}{\numberline {2.2}SLAVE MODULE}{6}{section.2.2}%
\contentsline {subsection}{\numberline {2.2.1}SCRIPTS}{6}{subsection.2.2.1}%
\contentsline {subsubsection}{\numberline {2.2.1.1}scripts.client\_infos module}{6}{subsubsection.2.2.1.1}%
\contentsline {subsubsection}{\numberline {2.2.1.2}scripts.compatibility\_method module}{7}{subsubsection.2.2.1.2}%
\contentsline {chapter}{Index des modules Python}{8}{section*.76}%
