\relax 
\providecommand\hyper@newdestlabel[2]{}
\@nameuse{bbl@beforestart}
\catcode `:\active 
\catcode `;\active 
\catcode `!\active 
\catcode `?\active 
\providecommand\HyperFirstAtBeginDocument{\AtBeginDocument}
\HyperFirstAtBeginDocument{\ifx\hyper@anchor\@undefined
\global\let\oldcontentsline\contentsline
\gdef\contentsline#1#2#3#4{\oldcontentsline{#1}{#2}{#3}}
\global\let\oldnewlabel\newlabel
\gdef\newlabel#1#2{\newlabelxx{#1}#2}
\gdef\newlabelxx#1#2#3#4#5#6{\oldnewlabel{#1}{{#2}{#3}}}
\AtEndDocument{\ifx\hyper@anchor\@undefined
\let\contentsline\oldcontentsline
\let\newlabel\oldnewlabel
\fi}
\fi}
\global\let\hyper@last\relax 
\gdef\HyperFirstAtBeginDocument#1{#1}
\providecommand\HyField@AuxAddToFields[1]{}
\providecommand\HyField@AuxAddToCoFields[2]{}
\babel@aux{french}{}
\newlabel{index::doc}{{}{1}{}{section*.2}{}}
\@writefile{toc}{\contentsline {chapter}{\numberline {1}Modules MASTER}{1}{chapter.1}\protected@file@percent }
\@writefile{lof}{\addvspace {10\p@ }}
\@writefile{lot}{\addvspace {10\p@ }}
\newlabel{index:modules-master}{{1}{1}{Modules MASTER}{chapter.1}{}}
\@writefile{toc}{\contentsline {section}{\numberline {1.1}ARGPARSE}{1}{section.1.1}\protected@file@percent }
\newlabel{project_master:argparse}{{1.1}{1}{ARGPARSE}{section.1.1}{}}
\newlabel{project_master::doc}{{1.1}{1}{ARGPARSE}{section.1.1}{}}
\@writefile{toc}{\contentsline {section}{\numberline {1.2}master module}{1}{section.1.2}\protected@file@percent }
\newlabel{project_master:module-project_master.master}{{1.2}{1}{master module}{section.1.2}{}}
\newlabel{project_master:master-module}{{1.2}{1}{master module}{section.1.2}{}}
\newlabel{project_master:project_master.master.Main}{{1.2}{1}{master module}{section*.3}{}}
\newlabel{project_master:project_master.master.Main.get_file_path}{{1.2}{1}{master module}{section*.4}{}}
\newlabel{project_master:project_master.master.Main.get_folder_path}{{1.2}{1}{master module}{section*.5}{}}
\newlabel{project_master:project_master.master.Main.get_hostname}{{1.2}{2}{master module}{section*.6}{}}
\newlabel{project_master:project_master.master.Main.get_port}{{1.2}{2}{master module}{section*.7}{}}
\newlabel{project_master:project_master.master.Main.start}{{1.2}{2}{master module}{section*.8}{}}
\newlabel{project_master:project_master.master.Main.stop}{{1.2}{2}{master module}{section*.9}{}}
\newlabel{project_master:project_master.master.Screen}{{1.2}{2}{master module}{section*.10}{}}
\newlabel{project_master:project_master.master.Screen.Return}{{1.2}{2}{master module}{section*.11}{}}
\newlabel{project_master:project_master.master.Screen.exit_curse}{{1.2}{2}{master module}{section*.12}{}}
\newlabel{project_master:project_master.master.Screen.initmenu}{{1.2}{2}{master module}{section*.13}{}}
\newlabel{project_master:project_master.master.Screen.input_ip_doss}{{1.2}{2}{master module}{section*.14}{}}
\newlabel{project_master:project_master.master.Screen.input_time_ddos}{{1.2}{2}{master module}{section*.15}{}}
\newlabel{project_master:project_master.master.Screen.refresh_all}{{1.2}{2}{master module}{section*.16}{}}
\newlabel{project_master:project_master.master.Screen.refresh_data}{{1.2}{2}{master module}{section*.17}{}}
\newlabel{project_master:project_master.master.Screen.run}{{1.2}{2}{master module}{section*.18}{}}
\newlabel{project_master:project_master.master.ServerThread}{{1.2}{2}{master module}{section*.19}{}}
\newlabel{project_master:project_master.master.ServerThread.broadcast}{{1.2}{2}{master module}{section*.20}{}}
\newlabel{project_master:project_master.master.ServerThread.run}{{1.2}{2}{master module}{section*.21}{}}
\newlabel{project_master:project_master.master.Timer}{{1.2}{2}{master module}{section*.22}{}}
\newlabel{project_master:project_master.master.clear}{{1.2}{2}{master module}{section*.23}{}}
\newlabel{project_master:project_master.master.ddos}{{1.2}{2}{master module}{section*.24}{}}
\newlabel{project_master:project_master.master.force_exit}{{1.2}{2}{master module}{section*.25}{}}
\newlabel{project_master:project_master.master.get_info}{{1.2}{3}{master module}{section*.26}{}}
\newlabel{project_master:project_master.master.mkdir}{{1.2}{3}{master module}{section*.27}{}}
\newlabel{project_master:project_master.master.send_log}{{1.2}{3}{master module}{section*.28}{}}
\newlabel{project_master:project_master.master.send_log_message}{{1.2}{3}{master module}{section*.29}{}}
\newlabel{project_master:project_master.master.start_log}{{1.2}{3}{master module}{section*.30}{}}
\newlabel{project_master:project_master.master.stop_log}{{1.2}{3}{master module}{section*.31}{}}
\@writefile{toc}{\contentsline {subsection}{\numberline {1.2.1}Module de classe}{3}{subsection.1.2.1}\protected@file@percent }
\newlabel{project_master:module-de-classe}{{1.2.1}{3}{Module de classe}{subsection.1.2.1}{}}
\@writefile{toc}{\contentsline {subsubsection}{\numberline {1.2.1.1}classes.menu\_class module}{3}{subsubsection.1.2.1.1}\protected@file@percent }
\newlabel{project_master_classes:module-project_master.classes.menu_class}{{1.2.1.1}{3}{classes.menu\_class module}{subsubsection.1.2.1.1}{}}
\newlabel{project_master_classes:classes-menu-class-module}{{1.2.1.1}{3}{classes.menu\_class module}{subsubsection.1.2.1.1}{}}
\newlabel{project_master_classes::doc}{{1.2.1.1}{3}{classes.menu\_class module}{subsubsection.1.2.1.1}{}}
\newlabel{project_master_classes:project_master.classes.menu_class.Menu}{{1.2.1.1}{3}{classes.menu\_class module}{section*.32}{}}
\newlabel{project_master_classes:project_master.classes.menu_class.Menu.color}{{1.2.1.1}{3}{classes.menu\_class module}{section*.33}{}}
\newlabel{project_master_classes:project_master.classes.menu_class.Menu.custom_pos_title}{{1.2.1.1}{3}{classes.menu\_class module}{section*.34}{}}
\newlabel{project_master_classes:project_master.classes.menu_class.Menu.display}{{1.2.1.1}{3}{classes.menu\_class module}{section*.35}{}}
\newlabel{project_master_classes:project_master.classes.menu_class.Menu.get_name}{{1.2.1.1}{4}{classes.menu\_class module}{section*.36}{}}
\newlabel{project_master_classes:project_master.classes.menu_class.Menu.menu_add}{{1.2.1.1}{4}{classes.menu\_class module}{section*.37}{}}
\newlabel{project_master_classes:project_master.classes.menu_class.Menu.pause}{{1.2.1.1}{4}{classes.menu\_class module}{section*.38}{}}
\newlabel{project_master_classes:project_master.classes.menu_class.Menu.run}{{1.2.1.1}{4}{classes.menu\_class module}{section*.39}{}}
\newlabel{project_master_classes:project_master.classes.menu_class.Menu.set_name}{{1.2.1.1}{4}{classes.menu\_class module}{section*.40}{}}
\newlabel{project_master_classes:project_master.classes.menu_class.Menu.size}{{1.2.1.1}{4}{classes.menu\_class module}{section*.41}{}}
\newlabel{project_master_classes:project_master.classes.menu_class.Menu.text_title}{{1.2.1.1}{4}{classes.menu\_class module}{section*.42}{}}
\@writefile{toc}{\contentsline {subsubsection}{\numberline {1.2.1.2}classes.slave\_data\_class module}{4}{subsubsection.1.2.1.2}\protected@file@percent }
\newlabel{project_master_classes:module-project_master.classes.slave_data_class}{{1.2.1.2}{4}{classes.slave\_data\_class module}{subsubsection.1.2.1.2}{}}
\newlabel{project_master_classes:classes-slave-data-class-module}{{1.2.1.2}{4}{classes.slave\_data\_class module}{subsubsection.1.2.1.2}{}}
\newlabel{project_master_classes:project_master.classes.slave_data_class.SlaveData}{{1.2.1.2}{4}{classes.slave\_data\_class module}{section*.43}{}}
\newlabel{project_master_classes:project_master.classes.slave_data_class.SlaveData.def_id}{{1.2.1.2}{4}{classes.slave\_data\_class module}{section*.44}{}}
\newlabel{project_master_classes:project_master.classes.slave_data_class.SlaveData.destroy}{{1.2.1.2}{4}{classes.slave\_data\_class module}{section*.45}{}}
\newlabel{project_master_classes:project_master.classes.slave_data_class.SlaveData.get_bdd_path}{{1.2.1.2}{4}{classes.slave\_data\_class module}{section*.46}{}}
\newlabel{project_master_classes:project_master.classes.slave_data_class.SlaveData.get_id}{{1.2.1.2}{4}{classes.slave\_data\_class module}{section*.47}{}}
\newlabel{project_master_classes:project_master.classes.slave_data_class.SlaveData.get_ip}{{1.2.1.2}{4}{classes.slave\_data\_class module}{section*.48}{}}
\newlabel{project_master_classes:project_master.classes.slave_data_class.SlaveData.get_log_file}{{1.2.1.2}{5}{classes.slave\_data\_class module}{section*.49}{}}
\newlabel{project_master_classes:project_master.classes.slave_data_class.SlaveData.get_log_path}{{1.2.1.2}{5}{classes.slave\_data\_class module}{section*.50}{}}
\newlabel{project_master_classes:project_master.classes.slave_data_class.SlaveData.get_mac}{{1.2.1.2}{5}{classes.slave\_data\_class module}{section*.51}{}}
\newlabel{project_master_classes:project_master.classes.slave_data_class.SlaveData.get_os_name}{{1.2.1.2}{5}{classes.slave\_data\_class module}{section*.52}{}}
\newlabel{project_master_classes:project_master.classes.slave_data_class.SlaveData.json_file_creator}{{1.2.1.2}{5}{classes.slave\_data\_class module}{section*.53}{}}
\newlabel{project_master_classes:project_master.classes.slave_data_class.SlaveData.log_file_gen}{{1.2.1.2}{5}{classes.slave\_data\_class module}{section*.54}{}}
\newlabel{project_master_classes:project_master.classes.slave_data_class.SlaveData.set_bdd_path}{{1.2.1.2}{5}{classes.slave\_data\_class module}{section*.55}{}}
\newlabel{project_master_classes:project_master.classes.slave_data_class.SlaveData.set_id}{{1.2.1.2}{5}{classes.slave\_data\_class module}{section*.56}{}}
\newlabel{project_master_classes:project_master.classes.slave_data_class.SlaveData.set_ip}{{1.2.1.2}{5}{classes.slave\_data\_class module}{section*.57}{}}
\newlabel{project_master_classes:project_master.classes.slave_data_class.SlaveData.set_name}{{1.2.1.2}{5}{classes.slave\_data\_class module}{section*.58}{}}
\newlabel{project_master_classes:project_master.classes.slave_data_class.SlaveData.to_json}{{1.2.1.2}{5}{classes.slave\_data\_class module}{section*.59}{}}
\newlabel{project_master_classes:project_master.classes.slave_data_class.SlaveData.to_string}{{1.2.1.2}{5}{classes.slave\_data\_class module}{section*.60}{}}
\@writefile{toc}{\contentsline {chapter}{\numberline {2}Modules SLAVE}{6}{chapter.2}\protected@file@percent }
\@writefile{lof}{\addvspace {10\p@ }}
\@writefile{lot}{\addvspace {10\p@ }}
\newlabel{index:modules-slave}{{2}{6}{Modules SLAVE}{chapter.2}{}}
\@writefile{toc}{\contentsline {section}{\numberline {2.1}START MODULE}{6}{section.2.1}\protected@file@percent }
\newlabel{project_slave:module-project_slave.start}{{2.1}{6}{START MODULE}{section.2.1}{}}
\newlabel{project_slave:start-module}{{2.1}{6}{START MODULE}{section.2.1}{}}
\newlabel{project_slave::doc}{{2.1}{6}{START MODULE}{section.2.1}{}}
\@writefile{toc}{\contentsline {section}{\numberline {2.2}SLAVE MODULE}{6}{section.2.2}\protected@file@percent }
\newlabel{project_slave:module-project_slave.slave}{{2.2}{6}{SLAVE MODULE}{section.2.2}{}}
\newlabel{project_slave:slave-module}{{2.2}{6}{SLAVE MODULE}{section.2.2}{}}
\newlabel{project_slave:project_slave.slave.ddoss}{{2.2}{6}{SLAVE MODULE}{section*.61}{}}
\newlabel{project_slave:project_slave.slave.getlocaltime}{{2.2}{6}{SLAVE MODULE}{section*.62}{}}
\newlabel{project_slave:project_slave.slave.on_press}{{2.2}{6}{SLAVE MODULE}{section*.63}{}}
\newlabel{project_slave:project_slave.slave.send_log}{{2.2}{6}{SLAVE MODULE}{section*.64}{}}
\newlabel{project_slave:project_slave.slave.start_log}{{2.2}{6}{SLAVE MODULE}{section*.65}{}}
\newlabel{project_slave:project_slave.slave.stop_log}{{2.2}{6}{SLAVE MODULE}{section*.66}{}}
\@writefile{toc}{\contentsline {subsection}{\numberline {2.2.1}SCRIPTS}{6}{subsection.2.2.1}\protected@file@percent }
\newlabel{project_slave:scripts}{{2.2.1}{6}{SCRIPTS}{subsection.2.2.1}{}}
\@writefile{toc}{\contentsline {subsubsection}{\numberline {2.2.1.1}scripts.client\_infos module}{6}{subsubsection.2.2.1.1}\protected@file@percent }
\newlabel{project_slave_scripts:module-project_slave.scripts.client_infos}{{2.2.1.1}{6}{scripts.client\_infos module}{subsubsection.2.2.1.1}{}}
\newlabel{project_slave_scripts:scripts-client-infos-module}{{2.2.1.1}{6}{scripts.client\_infos module}{subsubsection.2.2.1.1}{}}
\newlabel{project_slave_scripts::doc}{{2.2.1.1}{6}{scripts.client\_infos module}{subsubsection.2.2.1.1}{}}
\newlabel{project_slave_scripts:project_slave.scripts.client_infos.get_ip}{{2.2.1.1}{6}{scripts.client\_infos module}{section*.67}{}}
\newlabel{project_slave_scripts:project_slave.scripts.client_infos.get_mac}{{2.2.1.1}{7}{scripts.client\_infos module}{section*.68}{}}
\newlabel{project_slave_scripts:project_slave.scripts.client_infos.get_mac_ver}{{2.2.1.1}{7}{scripts.client\_infos module}{section*.69}{}}
\newlabel{project_slave_scripts:project_slave.scripts.client_infos.get_os_name}{{2.2.1.1}{7}{scripts.client\_infos module}{section*.70}{}}
\newlabel{project_slave_scripts:project_slave.scripts.client_infos.get_plat_rel}{{2.2.1.1}{7}{scripts.client\_infos module}{section*.71}{}}
\newlabel{project_slave_scripts:project_slave.scripts.client_infos.get_plat_sys}{{2.2.1.1}{7}{scripts.client\_infos module}{section*.72}{}}
\newlabel{project_slave_scripts:project_slave.scripts.client_infos.get_unix_libc_ver}{{2.2.1.1}{7}{scripts.client\_infos module}{section*.73}{}}
\newlabel{project_slave_scripts:project_slave.scripts.client_infos.get_win_ver}{{2.2.1.1}{7}{scripts.client\_infos module}{section*.74}{}}
\@writefile{toc}{\contentsline {subsubsection}{\numberline {2.2.1.2}scripts.compatibility\_method module}{7}{subsubsection.2.2.1.2}\protected@file@percent }
\newlabel{project_slave_scripts:module-project_slave.scripts.compatibility_method}{{2.2.1.2}{7}{scripts.compatibility\_method module}{subsubsection.2.2.1.2}{}}
\newlabel{project_slave_scripts:scripts-compatibility-method-module}{{2.2.1.2}{7}{scripts.compatibility\_method module}{subsubsection.2.2.1.2}{}}
\newlabel{project_slave_scripts:project_slave.scripts.compatibility_method.exception_open}{{2.2.1.2}{7}{scripts.compatibility\_method module}{section*.75}{}}
\@writefile{toc}{\contentsline {chapter}{Index des modules Python}{8}{section*.76}\protected@file@percent }
